…
**2. Come up with another approach that will give you the same output as not_cancelled %>% count(dest) and not_cancelled %>% count(tailnum, wt = distance) (without using count()).**


```r
not_cancelled <- flights %>% 
  filter(!is.na(dep_delay), !is.na(arr_delay))
not_cancelled %>% count(dest)
```

```
## # A tibble: 104 × 2
##     dest     n
##    <chr> <int>
## 1    ABQ   254
## 2    ACK   264
## 3    ALB   418
## 4    ANC     8
## 5    ATL 16837
## 6    AUS  2411
## 7    AVL   261
## 8    BDL   412
## 9    BGR   358
## 10   BHM   269
## # ... with 94 more rows
```

```r
not_cancelled %>% count(tailnum, wt = distance)
```

```
## # A tibble: 4,037 × 2
##    tailnum      n
##      <chr>  <dbl>
## 1   D942DN   3418
## 2   N0EGMQ 239143
## 3   N10156 109664
## 4   N102UW  25722
## 5   N103US  24619
## 6   N104UW  24616
## 7   N10575 139903
## 8   N105UW  23618
## 9   N107US  21677
## 10  N108UW  32070
## # ... with 4,027 more rows
```

```r
not_cancelled %>%
  group_by(dest) %>%
  summarise(flights = n()) 
```

```
## # A tibble: 104 × 2
##     dest flights
##    <chr>   <int>
## 1    ABQ     254
## 2    ACK     264
## 3    ALB     418
## 4    ANC       8
## 5    ATL   16837
## 6    AUS    2411
## 7    AVL     261
## 8    BDL     412
## 9    BGR     358
## 10   BHM     269
## # ... with 94 more rows
```

```r
not_cancelled %>%
  group_by(tailnum) %>%
  summarise(flights = sum(distance))
```

```
## # A tibble: 4,037 × 2
##    tailnum flights
##      <chr>   <dbl>
## 1   D942DN    3418
## 2   N0EGMQ  239143
## 3   N10156  109664
## 4   N102UW   25722
## 5   N103US   24619
## 6   N104UW   24616
## 7   N10575  139903
## 8   N105UW   23618
## 9   N107US   21677
## 10  N108UW   32070
## # ... with 4,027 more rows
```
…
#### 5.7 Group mutates (and filters)

**1. Refer back to the lists of useful mutate and filtering functions. Describe how each operation changes when you combine it with grouping.**  

**2. Which plane (tailnum) has the worst on-time record?**  

```r
not_cancelled %>%
  group_by(tailnum) %>%
  summarize(proportion_delay = sum(arr_delay > 0)/n()) %>%
  arrange(desc(proportion_delay))
```

```
## # A tibble: 4,037 × 2
##    tailnum proportion_delay
##      <chr>            <dbl>
## 1   N121DE                1
## 2   N136DL                1
## 3   N143DA                1
## 4   N17627                1
## 5   N240AT                1
## 6   N26906                1
## 7   N295AT                1
## 8   N302AS                1
## 9   N303AS                1
## 10  N32626                1
## # ... with 4,027 more rows
```
…
**4. For each destination, compute the total minutes of delay. For each, flight, compute the proportion of the total delay for its destination.**  

```r
#not_cancelled %>%
#  filter(dest) %>%
#  group_by(flight) %>%
#  summarize(flight_delay = sum(arr_delay)) 
not_cancelled %>%
  group_by(tailnum, dest) %>%
  summarize(flight_delay = sum(arr_delay))
```

```
## Source: local data frame [44,173 x 3]
## Groups: tailnum [?]
## 
##    tailnum  dest flight_delay
##      <chr> <chr>        <dbl>
## 1   D942DN   ATL           80
## 2   D942DN   MCO           46
## 3   N0EGMQ   ATL          556
## 4   N0EGMQ   BNA          253
## 5   N0EGMQ   CLE          132
## 6   N0EGMQ   CLT          617
## 7   N0EGMQ   CMH          615
## 8   N0EGMQ   DCA          114
## 9   N0EGMQ   DTW         -199
## 10  N0EGMQ   MSP          747
## # ... with 44,163 more rows
```
…
**7. Find all destinations that are flown by at least two carriers. Use that information to rank the carriers.**

```r
flights %>%
  group_by(dest) %>%
  summarize(num_carriers = n_distinct(carrier)) %>%
  filter(num_carriers >= 2)
```

```
## # A tibble: 76 × 2
##     dest num_carriers
##    <chr>        <int>
## 1    ATL            7
## 2    AUS            6
## 3    AVL            2
## 4    BDL            2
## 5    BGR            2
## 6    BNA            5
## 7    BOS            7
## 8    BQN            2
## 9    BTV            3
## 10   BUF            4
## # ... with 66 more rows
```
…
