…
**2. Add the location of the origin and destination (i.e. the lat and lon) to flights.**

```r
airports2 <- airports %>% 
  select(faa, lat, lon)

flights2 %>% 
  left_join(airports2, c("origin" = "faa")) %>% 
  rename("origin_lat" = lat, "origin_lon" = lon) %>% 
  left_join(airports2, c("dest" = "faa")) %>% 
  rename("dest_lat" = lat, "dest_lon" = lon)
```

```
## # A tibble: 336,776 × 12
##     year month   day  hour origin  dest tailnum carrier origin_lat
##    <int> <int> <int> <dbl>  <chr> <chr>   <chr>   <chr>      <dbl>
## 1   2013     1     1     5    EWR   IAH  N14228      UA   40.69250
## 2   2013     1     1     5    LGA   IAH  N24211      UA   40.77725
## 3   2013     1     1     5    JFK   MIA  N619AA      AA   40.63975
## 4   2013     1     1     5    JFK   BQN  N804JB      B6   40.63975
## 5   2013     1     1     6    LGA   ATL  N668DN      DL   40.77725
## 6   2013     1     1     5    EWR   ORD  N39463      UA   40.69250
## 7   2013     1     1     6    EWR   FLL  N516JB      B6   40.69250
## 8   2013     1     1     6    LGA   IAD  N829AS      EV   40.77725
## 9   2013     1     1     6    JFK   MCO  N593JB      B6   40.63975
## 10  2013     1     1     6    LGA   ORD  N3ALAA      AA   40.77725
## # ... with 336,766 more rows, and 3 more variables: origin_lon <dbl>,
## #   dest_lat <dbl>, dest_lon <dbl>
```
…
